DeepC Tutorial Format HiC Data
…
#  and the actual contact matrix under $marix.df
hic$matrix.df

## # A tibble: 2,563,166 x 5
##         y      x value  y.id  x.id
##     <dbl>  <dbl> <dbl> <dbl> <dbl>
##  1  2500.  2500. 1092.    0.    0.
##  2  2500.  7500.  272.    0.    1.
##  3  7500.  7500.  708.    1.    1.
##  4  2500. 12500.  114.    0.    2.
##  5  7500. 12500.  203.    1.    2.
##  6 12500. 12500.  818.    2.    2.
##  7  2500. 17500.  104.    0.    3.
##  8  7500. 17500.  121.    1.    3.
##  9 12500. 17500.  261.    2.    3.
## 10 17500. 17500. 1264.    3.    3.
## # ... with 2,563,156 more rows
…
## [1] "bedtools makewindows -b tempfile_for_bedtools_call_2019-11-21_14:42:07_0.676878524245694.bed  -w 1005000  -s 5000 >tempfile_from_bedtools_call_2019-11-21_14:42:07_0.676878524245694.bed"

binned.genome <- as.tibble(binned.genome)
names(binned.genome) <- c("chr", "start", "end")
# filter out ibcombplete megabase bins
binned.genome <- binned.genome %>%
  mutate(width = end - start) %>%
  filter(width == window.size) %>%
  select(-width)

# quick look at the binned genome
binned.genome

## # A tibble: 16,081 x 3
##    chr    start      end
##    <chr>  <dbl>    <dbl>
##  1 chr17     0. 1005000.
##  2 chr17  5000. 1010000.
##  3 chr17 10000. 1015000.
##  4 chr17 15000. 1020000.
##  5 chr17 20000. 1025000.
##  6 chr17 25000. 1030000.
##  7 chr17 30000. 1035000.
##  8 chr17 35000. 1040000.
##  9 chr17 40000. 1045000.
## 10 chr17 45000. 1050000.
## # ... with 16,071 more rows
…
# impute zeros with 5x5 median value
idf <- medianImputeZerosDataFrame(fdf, k=5)
idf <- idf[,-ncol(idf)]  #remove padded

# convert to tibble
idf <- as.tibble(idf)

# pyramid percentile binning
bdf <- pyramidBin(idf)

# inspect 
bdf

## # A tibble: 14,578 x 204
##    chr    start      end   `1`   `2`   `3`   `4`   `5`   `6`   `7`   `8`
##  * <chr>  <dbl>    <dbl> <dbl> <dbl> <dbl> <dbl> <dbl> <dbl> <dbl> <dbl>
##  1 chr17     0. 1005000.    1.    1.    9.    6.    1.    9.    6.    9.
##  2 chr17  5000. 1010000.    9.    1.    1.    2.    1.    5.    9.    2.
##  3 chr17 10000. 1015000.    9.   10.    1.    1.    1.   10.    9.   10.
##  4 chr17 15000. 1020000.   10.    1.    2.    6.    8.    2.    3.    5.
##  5 chr17 20000. 1025000.   10.    7.    7.    8.    6.    7.    8.    5.
##  6 chr17 25000. 1030000.    8.    2.    6.    9.    2.    7.    2.    8.
##  7 chr17 30000. 1035000.    7.    5.    8.    1.    2.    3.    3.    5.
##  8 chr17 35000. 1040000.   10.   10.    6.    9.    5.    1.    4.    1.
##  9 chr17 40000. 1045000.    6.    1.    4.    3.    8.    6.    6.    2.
## 10 chr17 45000. 1050000.   10.   10.    7.    5.    3.    4.    8.    6.
## # ... with 14,568 more rows, and 193 more variables: `9` <dbl>,
## #   `10` <dbl>, `11` <dbl>, `12` <dbl>, `13` <dbl>, `14` <dbl>,
## #   `15` <dbl>, `16` <dbl>, `17` <dbl>, `18` <dbl>, `19` <dbl>,
## #   `20` <dbl>, `21` <dbl>, `22` <dbl>, `23` <dbl>, `24` <dbl>,
## #   `25` <dbl>, `26` <dbl>, `27` <dbl>, `28` <dbl>, `29` <dbl>,
## #   `30` <dbl>, `31` <dbl>, `32` <dbl>, `33` <dbl>, `34` <dbl>,
## #   `35` <dbl>, `36` <dbl>, `37` <dbl>, `38` <dbl>, `39` <dbl>,
## #   `40` <dbl>, `41` <dbl>, `42` <dbl>, `43` <dbl>, `44` <dbl>,
## #   `45` <dbl>, `46` <dbl>, `47` <dbl>, `48` <dbl>, `49` <dbl>,
…
Now we just need to store the data in txt format.

  # collate to single comma separated column
  bdf$class <- bdf %>%
    select(-chr, -start, -end) %>%
    unite(col = class, sep = ",") %>%
    pull()

  # and trim output
  bdf <- bdf %>% select(chr, start, end, class)
  
  # inspect
  bdf

## # A tibble: 14,578 x 4
##    chr    start      end class                                            
##  * <chr>  <dbl>    <dbl> <chr>                                            
##  1 chr17     0. 1005000. 1,1,9,6,1,9,6,9,7,5,9,5,5,6,4,10,9,4,4,6,7,7,8,1
##  2 chr17  5000. 1010000. 9,1,1,2,1,5,9,2,3,6,9,4,9,6,1,10,6,6,6,7,9,6,5,4
##  3 chr17 10000. 1015000. 9,10,1,1,1,10,9,10,8,10,4,7,3,7,4,5,3,8,10,5,9,7
##  4 chr17 15000. 1020000. 10,1,2,6,8,2,3,5,1,6,2,10,5,4,6,8,7,7,8,8,9,9,10
##  5 chr17 20000. 1025000. 10,7,7,8,6,7,8,5,5,10,10,10,9,7,9,7,7,9,9,6,9,8,
##  6 chr17 25000. 1030000. 8,2,6,9,2,7,2,8,5,6,6,10,8,6,6,5,6,9,7,6,9,9,4,1
##  7 chr17 30000. 1035000. 7,5,8,1,2,3,3,5,4,9,6,7,7,8,7,8,8,2,8,7,5,6,5,9,
##  8 chr17 35000. 1040000. 10,10,6,9,5,1,4,1,2,2,5,9,8,6,7,9,9,2,6,6,8,7,7,
##  9 chr17 40000. 1045000. 6,1,4,3,8,6,6,2,6,3,7,6,6,10,4,6,6,3,1,6,7,6,4,9
## 10 chr17 45000. 1050000. 10,10,7,5,3,4,8,6,5,2,8,7,10,5,3,1,10,6,6,4,6,2,
## # ... with 14,568 more rows
…
